…
Load the data:


```r
library(farsdata)
```

Look at it:


```r
vehicles
#> # A tibble: 945 x 5
#>    vehicle_type           year involving    yes    no
#>    <chr>                 <int> <chr>      <dbl> <dbl>
#>  1 Passenger Car          2004 distracted  2864 22818
#>  2 Light Truck - Pickup   2004 distracted  1365  9489
#>  3 Light Truck - Utility  2004 distracted   931  6903
#>  4 Light Truck - Van      2004 distracted   460  3227
#>  5 Light Truck - Other    2004 distracted    13    98
#>  6 Large Truck            2004 distracted   808  4094
#>  7 Motorcycle             2004 distracted   420  3701
#>  8 Bus                    2004 distracted    40   239
#>  9 Other/Unknown          2004 distracted    92  1167
#> 10 Passenger Car          2005 distracted  2604 22565
#> # … with 935 more rows
```
